{
	"info": {
		"_postman_id": "0c2224b7-bb97-4d80-83dc-f362504ff7ab",
		"name": "API",
		"schema": "https://schema.getpostman.com/json/collection/v2.1.0/collection.json"
	},
	"item": [
		{
			"name": "movie",
			"description": "",
			"item": [
				{
					"name": "movie",
					"event": [
						{
							"listen": "test",
							"script": {
								"id": "513dae1d-3548-4afe-8f8f-848a434db0f1",
								"type": "text/javascript",
								"exec": [
									""
								]
							}
						}
					],
					"request": {
						"method": "GET",
						"header": [
							{
								"key": "Accept",
								"value": "application/json"
							}
						],
						"body": {
							"mode": "raw",
							"raw": "{\n  \"Username\": \"spark\",\n  \"Password\": \"testing1\"\n}"
						},
						"url": {
							"raw": "{{base_url}}/movie",
							"host": [
								"{{base_url}}"
							],
							"path": [
								"movie"
							]
						}
					},
					"response": []
				},
				{
					"name": "movie",
					"event": [
						{
							"listen": "test",
							"script": {
								"id": "6e525238-1145-428e-8ec4-2d987d9aaf92",
								"type": "text/javascript",
								"exec": [
									"// Delete global variable",
									"pm.globals.unset(\"movies\");"
								]
							}
						},
						{
							"listen": "prerequest",
							"script": {
								"id": "3afcf6c5-6cca-4315-aa26-e46e88da5bed",
								"type": "text/javascript",
								"exec": [
									"// Delete global variable",
									"pm.globals.unset(\"movies\");",
									"",
									"const moment = require('moment');",
									"",
									"// Number of movie samples needed",
									"const MAX_MOVIES = 5;",
									"",
									"// Array of movies",
									"const movies = [];",
									"",
									"// Generate IMDB movie id from a predefined selection of movies",
									"function movieId() {",
									"    let movies = ['tt0110912', 'tt0068646', 'tt0371746', 'tt0489099', 'tt0212338',",
									"        'tt1457767', 'tt2096673', 'tt3235888', 'tt0114709', 'tt5052448',",
									"        'tt0113497', 'tt0246578', 'tt0137523', 'tt0151804', 'tt0112697',",
									"        'tt0091369', 'tt0084787', 'tt0109445', 'tt0088247', 'tt0032138',",
									"        'tt0087332', 'tt0829482', 'tt0247745', 'tt0838283', 'tt1431045',",
									"        'tt1119646', 'tt3501632', 'tt1637725', 'tt0114694', 'tt0405422',",
									"        'tt0133093', 'tt1130884', 'tt1375666', 'tt0816692', 'tt0780504',",
									"        'tt0372784', 'tt0848228', 'tt1825683', 'tt2015381', 'tt4154756',",
									"        'tt3498820', 'tt2250912', 'tt0478970', 'tt1300854', 'tt3896198',",
									"        'tt1211837', 'tt1843866', 'tt0800080', 'tt0800369', 'tt1981115',",
									"        'tt2395427', 'tt0458339', 'tt1228705', 'tt0109830', 'tt0163651'];",
									"    ",
									"    return _.sample(movies);",
									"}",
									"",
									"function fetchMovie() {",
									"    pm.sendRequest(`http://www.omdbapi.com/?apikey=accbd20b&i=${movieId()}`, getMovies);",
									"}",
									"",
									"// Fetch movies and store them in a postman variable without Promises",
									"function getMovies(err, movie) {",
									"    if(typeof err === 'undefined' && typeof movie === 'undefined') {",
									"        return fetchMovie();",
									"    }",
									"    ",
									"    // Repeat step when an error is present",
									"    if (err) {",
									"        return fetchMovie();",
									"    }",
									"    ",
									"    let json = movie.json();",
									"    ",
									"    if (json.Error) {",
									"        return fetchMovie();",
									"    }",
									"    ",
									"    movies.push({",
									"        title: json.Title,",
									"        plot: json.Plot,",
									"        releaseDate: parseInt(moment(json.Released).format('x')),",
									"        actors: json.Actors ? json.Actors.split(', ') : json.Actors,",
									"        duration: parseInt(json.Runtime.replace(' min', '')),",
									"        rating: json.Rated || 'N/A',",
									"        poster: json.Poster || ''",
									"    });",
									"    ",
									"    if (movies.length < MAX_MOVIES) {",
									"        fetchMovie();",
									"    } else {",
									"         // Store global variable and stop recursion",
									"        if (movies.length >= MAX_MOVIES) {",
									"            if(!pm.globals.get(\"movies\")) {",
									"                pm.globals.set(\"movies\", JSON.stringify(movies));",
									"            }",
									"        }",
									"    }",
									"}",
									"",
									"// Fetch movies and store in a global variable",
									"getMovies();",
									"",
									"",
									"",
									"",
									"",
									"",
									"// Apparently Postman does not support setting env/global/regular",
									"//  variables within Promises or Async/Await functions. Thus below",
									"//  is useless at the moment.",
									"/*",
									"",
									"// Generate random IMDB video id",
									"//  This has been disabled because a lot of the videos it returns",
									"//  have almost none of the asked attributes in the project",
									"//  requirments.",
									"// function movieId() {",
									"//   let number = Math.floor((Math.random() * 2155529) + 1);",
									"//   let length = 7;",
									"//   let str = '' + number;",
									"//   while(str.length < length) {",
									"//     str = '0' + str;",
									"//   }",
									"//   return `tt${str}`;",
									"// }",
									"",
									"function fetchMovie() {",
									"    return new Promise((resolve, reject) => {",
									"        pm.sendRequest(\"http://www.omdbapi.com/?apikey=accbd20b&i=\" + movieId(), (err, response) => {",
									"            if (err) {",
									"                console.log('err5');",
									"                return reject(err);",
									"            }",
									"            ",
									"            let json = response.json();",
									"            ",
									"            if (json.Error) {",
									"                console.log('err4');",
									"                reject(json);",
									"            } else {",
									"                resolve(json);",
									"            }",
									"        });",
									"    });",
									"}",
									"",
									"async function getMovie() {",
									"    try {",
									"        return await fetchMovie();",
									"    } catch(err) {",
									"        console.log(err);",
									"        // Fetch a valid movie",
									"        return await getMovie();",
									"    }",
									"}",
									"",
									"async function getMovies() {",
									"    try {",
									"        let movies = [];",
									"        let promises = [];",
									"        ",
									"        for(let i = 0; i < 5; i++) {",
									"            promises.push(getMovie());",
									"        }",
									"        ",
									"        promises.forEach(promise => {",
									"            promise.then(result => {",
									"                movies.push({",
									"                    title: result.Title,",
									"                    plot: result.Plot,",
									"                    releaseDate: moment(result.Released).format('x'),",
									"                    actors: result.Actors ? result.Actors.split(', ') : result.Actors,",
									"                    duration: parseInt(result.Runtime.replace(' min', '')),",
									"                    rating: result.Rated || 'N/A',",
									"                    poster: ''",
									"                });",
									"            });",
									"        });",
									"        ",
									"        await Promise.all(promises);",
									"        return movies;",
									"    } catch (err) {",
									"        console.log(err);",
									"    }",
									"}",
									"",
									"getMovies().then(result => {",
									"    pm.globals.set(\"movies\", result);",
									"}).catch(err => {",
									"    console.log(err);",
									"});",
									"*/",
									""
								]
							}
						}
					],
					"request": {
						"method": "POST",
						"header": [
							{
								"key": "Accept",
								"value": "application/json"
							},
							{
								"key": "Content-Type",
								"value": "application/json"
							}
						],
						"body": {
							"mode": "raw",
							"raw": "{{movies}}"
						},
						"url": {
							"raw": "{{base_url}}/movie",
							"host": [
								"{{base_url}}"
							],
							"path": [
								"movie"
							]
						}
					},
					"response": []
				},
				{
					"name": "movie/{id}",
					"event": [
						{
							"listen": "test",
							"script": {
								"id": "513dae1d-3548-4afe-8f8f-848a434db0f1",
								"type": "text/javascript",
								"exec": [
									""
								]
							}
						}
					],
					"request": {
						"method": "GET",
						"header": [
							{
								"key": "Accept",
								"value": "application/json"
							}
						],
						"body": {
							"mode": "raw",
							"raw": "{\n  \"Username\": \"spark\",\n  \"Password\": \"testing1\"\n}"
						},
						"url": {
							"raw": "{{base_url}}/movie/{id}",
							"host": [
								"{{base_url}}"
							],
							"path": [
								"movie",
								"{id}"
							]
						}
					},
					"response": []
				},
				{
					"name": "movie/{id}",
					"event": [
						{
							"listen": "test",
							"script": {
								"id": "513dae1d-3548-4afe-8f8f-848a434db0f1",
								"type": "text/javascript",
								"exec": [
									""
								]
							}
						}
					],
					"request": {
						"method": "DELETE",
						"header": [
							{
								"key": "Accept",
								"value": "application/json"
							}
						],
						"body": {
							"mode": "raw",
							"raw": "{\n  \"Username\": \"spark\",\n  \"Password\": \"testing1\"\n}"
						},
						"url": {
							"raw": "{{base_url}}/movie/{id}",
							"host": [
								"{{base_url}}"
							],
							"path": [
								"movie",
								"{id}"
							]
						}
					},
					"response": []
				}
			],
			"auth": {
				"type": "basic",
				"basic": [
					{
						"key": "password",
						"value": "{{password}}",
						"type": "string"
					},
					{
						"key": "username",
						"value": "{{username}}",
						"type": "string"
					}
				]
			},
			"event": [
				{
					"listen": "prerequest",
					"script": {
						"id": "6ed65d4a-464a-47e2-8460-00df27c64f88",
						"type": "text/javascript",
						"exec": [
							""
						]
					}
				},
				{
					"listen": "test",
					"script": {
						"id": "1227420d-2b1c-4320-8ebd-6a360b3125f8",
						"type": "text/javascript",
						"exec": [
							""
						]
					}
				}
			]
		}
	]
}